{"help": "https://data.go.th/api/3/action/help_show?name=datastore_search", "success": true, "result": {"include_total": true, "resource_id": "981ffa6f-2700-407e-9056-0ee05810adc6", "fields": [{"type": "int", "id": "_id"}, {"type": "text", "id": "Local_government_organization"}, {"type": "text", "id": "Number"}, {"type": "text", "id": "Village No"}, {"type": "text", "id": "Road"}, {"type": "text", "id": "Address_district"}, {"type": "text", "id": "Address_amphure"}, {"type": "text", "id": "Address_province"}, {"type": "text", "id": "Zipcode"}, {"type": "numeric", "id": "LAT"}, {"type": "numeric", "id": "LNG"}], "records_format": "objects", "records": [{"_id":1,"Local_government_organization":"อบจ.กระบี่","Number":"333","Village No":"7","Road":"ท่าเรือ","Address_district":"ไสไทย","Address_amphure":"เมืองกระบี่","Address_province":"กระบี่","Zipcode":"81000","LAT":8.407168,"LNG":98.96853446960449},{"_id":2,"Local_government_organization":"เทศบาลเมืองกระบี่","Number":"292","Village No":"-","Road":"มหาราช","Address_district":"ปากน้ำ","Address_amphure":"เมืองกระบี่","Address_province":"กระบี่","Zipcode":"81000","LAT":8.1384069317858287,"LNG":98.848260435365447},{"_id":3,"Local_government_organization":"เทศบาลตำบลกระบี่น้อย","Number":"9/9","Village No":"9","Road":"กระบี่น้อย - เขาพนม","Address_district":"กระบี่น้อย","Address_amphure":"เมืองกระบี่","Address_province":"กระบี่","Zipcode":"81000","LAT":8.1799999999999997,"LNG":98.959999999999994},{"_id":4,"Local_government_organization":"อบต.คลองประสงค์","Number":"286","Village No":"1","Road":"-","Address_district":"คลองประสงค์","Address_amphure":"เมืองกระบี่","Address_province":"กระบี่","Zipcode":"81000","LAT":8.0099999999999998,"LNG":98.920000000000002},{"_id":5,"Local_government_organization":"อบต.ทับปริก","Number":"171","Village No":"6","Road":"-","Address_district":"ทับปริก","Address_amphure":"เมืองกระบี่","Address_province":"กระบี่","Zipcode":"81000","LAT":8.1999999999999993,"LNG":98.890000000000001},{"_id":6,"Local_government_organization":"อบต.หนองทะเล","Number":"6/1","Village No":"1","Road":"หนองทะเล- คลองม่วง","Address_district":"หนองทะเล","Address_amphure":"เมืองกระบี่","Address_province":"กระบี่","Zipcode":"81180","LAT":8.0899999999999999,"LNG":98.789999999999964},{"_id":7,"Local_government_organization":"อบต.อ่าวนาง","Number":"255","Village No":"5","Road":"-","Address_district":"กระบี่น้อย","Address_amphure":"เมืองกระบี่","Address_province":"กระบี่","Zipcode":"81180","LAT":8.0514536083570878,"LNG":98.803589344024658},{"_id":8,"Local_government_organization":"อบต.ไสไทย","Number":"339","Village No":"7","Road":"กระบี่-ท่าเรือ","Address_district":"ไสไทย","Address_amphure":"เมืองกระบี่","Address_province":"กระบี่","Zipcode":"81000","LAT":8.0509437002649715,"LNG":98.907294273376465},{"_id":9,"Local_government_organization":"อบต.สินปุน","Number":"-","Village No":"3","Road":"ทุ่งใหญ่-เขาพนม","Address_district":"สินปุน","Address_amphure":"เขาพนม","Address_province":"กระบี่","Zipcode":"80240","LAT":8.2799999999999994,"LNG":99.25},{"_id":10,"Local_government_organization":"อบต.เขาดิน","Number":"118","Village No":"1","Road":"ควนทัง-เขาแก้ว","Address_district":"เขาดิน","Address_amphure":"เขาพนม","Address_province":"กระบี่","Zipcode":"81140","LAT":8.3407641574732398,"LNG":99.057884216308594},{"_id":11,"Local_government_organization":"อบต.เขาพนม","Number":"222","Village No":"6","Road":"-","Address_district":"เขาดิน","Address_amphure":"เขาพนม","Address_province":"กระบี่","Zipcode":"81140","LAT":8.2732720282812853,"LNG":99.120221549253714},{"_id":12,"Local_government_organization":"อบต.คลองยาง","Number":"221","Village No":"1","Road":"-","Address_district":"เกาะกลาง","Address_amphure":"เกาะลันตา","Address_province":"กระบี่","Zipcode":"81120","LAT":7.8499999999999996,"LNG":99.069999999999993},{"_id":13,"Local_government_organization":"อบต.เกาะกลาง","Number":"322 ","Village No":"4","Road":"-","Address_district":"เกาะกลาง","Address_amphure":"เกาะลันตา","Address_province":"กระบี่","Zipcode":"81120","LAT":7.71,"LNG":99.120000000000005},{"_id":14,"Local_government_organization":"อบต.เกาะลันตาน้อย","Number":"144","Village No":"1","Road":"-","Address_district":"เกาะลันตาน้อย","Address_amphure":"เกาะลันตา","Address_province":"กระบี่","Zipcode":"81150","LAT":7.6500000000000004,"LNG":99.090000000000003},{"_id":15,"Local_government_organization":"อบต.เกาะลันตาใหญ่","Number":"90","Village No":"6","Road":"-","Address_district":"เกาะลันตาใหญ่","Address_amphure":"เกาะลันตา","Address_province":"กระบี่","Zipcode":"81150","LAT":7.4100000000000001,"LNG":99.209999999999994},{"_id":16,"Local_government_organization":"เทศบาลตำบลคลองพน","Number":"399","Village No":"1","Road":"-","Address_district":"คลองท่อมใต้","Address_amphure":"คลองท่อม","Address_province":"กระบี่","Zipcode":"81170","LAT":7.8071667576893438,"LNG":99.203613996505737},{"_id":17,"Local_government_organization":"เทศบาลตำบลห้วยน้ำขาว","Number":"99","Village No":"7","Road":"-","Address_district":"คลองท่อมใต้","Address_amphure":"คลองท่อม","Address_province":"กระบี่","Zipcode":"81120","LAT":7.8700000000000001,"LNG":99.129999999999995},{"_id":18,"Local_government_organization":"อบต.คลองท่อมเหนือ","Number":"164/1","Village No":"4","Road":"-","Address_district":"คลองท่อมเหนือ","Address_amphure":"คลองท่อม","Address_province":"กระบี่","Zipcode":"81120","LAT":7.9299999999999997,"LNG":99.260000000000005},{"_id":19,"Local_government_organization":"อบต.คลองท่อมใต้","Number":"99","Village No":"2","Road":"คลองท่อม - ลำทับ","Address_district":"คลองท่อมใต้","Address_amphure":"คลองท่อม","Address_province":"กระบี่","Zipcode":"81120","LAT":7.9400000000000004,"LNG":99.150000000000006},{"_id":20,"Local_government_organization":"อบต.พรุดินนา","Number":"35/13","Village No":"2","Road":"-","Address_district":"พรุดินนา","Address_amphure":"คลองท่อม","Address_province":"กระบี่","Zipcode":"81120","LAT":8.0600000000000005,"LNG":99.209999999999994},{"_id":21,"Local_government_organization":"อบต.เพหลา","Number":"214","Village No":"3","Road":"-","Address_district":"เพหลา","Address_amphure":"คลองท่อม","Address_province":"กระบี่","Zipcode":"81120","LAT":8.0824186971801169,"LNG":99.143596887588501},{"_id":22,"Local_government_organization":"เทศบาลตำบลอ่าวลึกใต้","Number":"1/1","Village No":"2","Road":"-","Address_district":"อ่าวลึกใต้","Address_amphure":"อ่าวลึก","Address_province":"กระบี่","Zipcode":"81110","LAT":8.3779529073341816,"LNG":98.720991692543066},{"_id":23,"Local_government_organization":"เทศบาลตำบลแหลมสัก","Number":"209","Village No":"3","Road":"-","Address_district":"แหลมสัก","Address_amphure":"อ่าวลึก","Address_province":"กระบี่","Zipcode":"81110","LAT":8.3000000000000007,"LNG":98.650000000000006},{"_id":24,"Local_government_organization":"อบต.คลองยา","Number":"18/18","Village No":"4","Road":"-","Address_district":"คลองยา","Address_amphure":"อ่าวลึก","Address_province":"กระบี่","Zipcode":"81110","LAT":8.3900000000000006,"LNG":98.890000000000001},{"_id":25,"Local_government_organization":"อบต.คลองหิน","Number":"119","Village No":"3","Road":"เพชรเกษม","Address_district":"คลองหิน","Address_amphure":"อ่าวลึก","Address_province":"กระบี่","Zipcode":"81110","LAT":8.3100000000000005,"LNG":98.840000000000003},{"_id":26,"Local_government_organization":"อบต.บ้านกลาง","Number":"137","Village No":"2","Road":"-","Address_district":"เขาใหญ่","Address_amphure":"อ่าวลึก","Address_province":"กระบี่","Zipcode":"81110","LAT":8.3499999999999996,"LNG":98.790000000000006},{"_id":27,"Local_government_organization":"อบต.อ่าวลึกน้อย","Number":"100","Village No":"3","Road":"หนองหลุมพอ - บากัน","Address_district":"อ่าวลึกน้อย","Address_amphure":"อ่าวลึก","Address_province":"กระบี่","Zipcode":"81110","LAT":8.2699999999999996,"LNG":98.719999999999999},{"_id":28,"Local_government_organization":"อบต.อ่าวลึกเหนือ","Number":"108/1","Village No":"6","Road":"-","Address_district":"อ่าวลึกเหนือ","Address_amphure":"อ่าวลึก","Address_province":"กระบี่","Zipcode":"81110","LAT":8.4000000000000004,"LNG":98.790000000000006},{"_id":29,"Local_government_organization":"อบต.อ่าวลึกใต้","Number":"99/22","Village No":"2","Road":"มะรุ่ย-ควนขนมจีน","Address_district":"อ่าวลึกใต้","Address_amphure":"อ่าวลึก","Address_province":"กระบี่","Zipcode":"81110","LAT":8.3900000000000006,"LNG":98.709999999999994},{"_id":30,"Local_government_organization":"อบต.เขาใหญ่","Number":"39","Village No":"5","Road":"-","Address_district":"เขาใหญ่","Address_amphure":"อ่าวลึก","Address_province":"กระบี่","Zipcode":"81110","LAT":8.4673396263692737,"LNG":98.735957443714142},{"_id":31,"Local_government_organization":"เทศบาลตำบลปลายพระยา","Number":"122/3","Village No":"-","Road":"อ่าวลึก-พระแสง","Address_district":"ปลายพระยา","Address_amphure":"ปลายพระยา","Address_province":"กระบี่","Zipcode":"81160","LAT":8.5461549398746577,"LNG":98.881897757269698},{"_id":32,"Local_government_organization":"อบต.คีรีวง","Number":"-","Village No":"2","Road":"-","Address_district":"คีรีวง","Address_amphure":"ปลายพระยา","Address_province":"กระบี่","Zipcode":"81160","LAT":8.4542045338913852,"LNG":98.819961547851562},{"_id":33,"Local_government_organization":"อบต.เขาเขน","Number":"399","Village No":"3","Road":"ปลายพระยา-เขาต่อ","Address_district":"เขาเขน","Address_amphure":"ปลายพระยา","Address_province":"กระบี่","Zipcode":"81160","LAT":8.5564187606960722,"LNG":98.811582326889038},{"_id":34,"Local_government_organization":"เทศบาลตำบลลำทับ","Number":"842","Village No":"5","Road":"อนุสรณ์พระเศวต","Address_district":"ลำทับ","Address_amphure":"ลำทับ","Address_province":"กระบี่","Zipcode":"81190","LAT":8.0299999999999994,"LNG":99.319999999999993},{"_id":35,"Local_government_organization":"อบต.ดินอุดม","Number":"99","Village No":"7","Road":"พรุขี้กา - ป่าใหม่","Address_district":"ดินอุดม","Address_amphure":"ลำทับ","Address_province":"กระบี่","Zipcode":"81190","LAT":8.0999999999999996,"LNG":99.359999999999999},{"_id":36,"Local_government_organization":"อบต.ดินแดง","Number":"12","Village No":"2","Road":"-","Address_district":"ดินแดง","Address_amphure":"ลำทับ","Address_province":"กระบี่","Zipcode":"81190","LAT":8.0098727483332208,"LNG":99.389619827270508},{"_id":5035,"Local_government_organization":"เทศบาลตำบลบางกะจะ","Number":"-","Village No":"-","Road":"-","Address_district":"","Address_amphure":"","Address_province":"","Zipcode":"-","LAT":12.56,"LNG":102.06},{"_id":37,"Local_government_organization":"อบต.ทุ่งไทรทอง","Number":"169","Village No":"5","Road":"-","Address_district":"ทุ่งไทรทอง","Address_amphure":"ลำทับ","Address_province":"กระบี่","Zipcode":"81190","LAT":8.0622134689999996,"LNG":99.274653569999998},{"_id":38,"Local_government_organization":"อบต.ลำทับ","Number":"291","Village No":"4","Road":"-","Address_district":"ลำทับ","Address_amphure":"ลำทับ","Address_province":"กระบี่","Zipcode":"81190","LAT":8.0299999999999994,"LNG":99.319999999999993},{"_id":39,"Local_government_organization":"อบต.คลองเขม้า","Number":"234","Village No":"1","Road":"-","Address_district":"คลองเขม้า","Address_amphure":"เหนือคลอง","Address_province":"กระบี่","Zipcode":"81130","LAT":8.0262947220191929,"LNG":98.996370434761047},{"_id":40,"Local_government_organization":"อบต.ตลิ่งชัน","Number":"169","Village No":"3","Road":"-","Address_district":"เกาะศรีบอยา","Address_amphure":"เหนือคลอง","Address_province":"กระบี่","Zipcode":"81130","LAT":7.9699999999999998,"LNG":98.969999999999999},{"_id":41,"Local_government_organization":"อบต.ปกาสัย","Number":"82","Village No":"3","Road":"-","Address_district":"ปกาสัย","Address_amphure":"เหนือคลอง","Address_province":"กระบี่","Zipcode":"81130","LAT":8.0099999999999998,"LNG":99.060000000000002},{"_id":42,"Local_government_organization":"อบต.เหนือคลอง","Number":"364","Village No":"6","Road":"-","Address_district":"เหนือคลอง","Address_amphure":"เหนือคลอง","Address_province":"กระบี่","Zipcode":"81130","LAT":8.0800000000000001,"LNG":98.989999999999995},{"_id":43,"Local_government_organization":"อบต.โคกยาง","Number":"-","Village No":"-","Road":"-","Address_district":"โคกยาง","Address_amphure":"เหนือคลอง","Address_province":"กระบี่","Zipcode":"-","LAT":8.0823201737243977,"LNG":99.089605715274843},{"_id":44,"Local_government_organization":"อบจ.กาญจนบุรี","Number":"333","Village No":"-","Road":"แสงชูโต","Address_district":"ท่ามะขาม","Address_amphure":"เมืองกาญจนบุรี","Address_province":"กาญจนบุรี","Zipcode":"71000","LAT":14.004597495113643,"LNG":99.549425840377808},{"_id":45,"Local_government_organization":"เทศบาลเมืองกาญจนบุรี","Number":"19/1 ","Village No":"-","Road":"หลักเมือง","Address_district":"เกาะสำโรง","Address_amphure":"เมืองกาญจนบุรี","Address_province":"กาญจนบุรี","Zipcode":"71000","LAT":14.005365226571888,"LNG":99.539909362792969},{"_id":46,"Local_government_organization":"เทศบาลเมืองปากแพรก","Number":"10","Village No":"10","Road":"-","Address_district":"ปากแพรก","Address_amphure":"เมืองกาญจนบุรี","Address_province":"กาญจนบุรี","Zipcode":"71000","LAT":14.03834142291563,"LNG":99.546209871768951},{"_id":47,"Local_government_organization":"เทศบาลตำบลท่ามะขาม","Number":"9/9","Village No":"3","Road":"ท่าน้ำตื้น - บ้านเก่า","Address_district":"ท่ามะขาม","Address_amphure":"เมืองกาญจนบุรี","Address_province":"กาญจนบุรี","Zipcode":"71000","LAT":14.039999999999999,"LNG":99.5},{"_id":48,"Local_government_organization":"เทศบาลตำบลหนองบัว","Number":"33/3","Village No":"1","Road":"-","Address_district":"หนองบัว","Address_amphure":"เมืองกาญจนบุรี","Address_province":"กาญจนบุรี","Zipcode":"71190","LAT":14.06,"LNG":99.420000000000002},{"_id":49,"Local_government_organization":"อบต.ช่องสะเดา","Number":"123","Village No":"6","Road":"-","Address_district":"ช่องสะเดา","Address_amphure":"เมืองกาญจนบุรี","Address_province":"กาญจนบุรี","Zipcode":"71190","LAT":14.26,"LNG":99.239999999999995},{"_id":50,"Local_government_organization":"อบต.บ้านเก่า","Number":"399","Village No":"1","Road":"-","Address_district":"บ้านเก่า","Address_amphure":"เมืองกาญจนบุรี","Address_province":"กาญจนบุรี","Zipcode":"71000","LAT":13.975298267229267,"LNG":99.313660564422662},{"_id":51,"Local_government_organization":"อบต.วังด้ง","Number":"19","Village No":"4","Road":"กาญจนบุรี-ศรีสวัสดิ์","Address_district":"วังด้ง","Address_amphure":"เมืองกาญจนบุรี","Address_province":"กาญจนบุรี","Zipcode":"71190","LAT":14.15,"LNG":99.310000000000002},{"_id":52,"Local_government_organization":"อบต.หนองบัว","Number":"199","Village No":"4","Road":"-","Address_district":"หนองบัว","Address_amphure":"เมืองกาญจนบุรี","Address_province":"กาญจนบุรี","Zipcode":"71190","LAT":14.06,"LNG":99.420000000000002},{"_id":53,"Local_government_organization":"อบต.หนองหญ้า","Number":"-","Village No":"5","Road":"-","Address_district":"หนองหญ้า","Address_amphure":"เมืองกาญจนบุรี","Address_province":"กาญจนบุรี","Zipcode":"71000","LAT":13.98,"LNG":99.450000000000045},{"_id":54,"Local_government_organization":"อบต.เกาะสำโรง","Number":"199","Village No":"3","Road":"-","Address_district":"เกาะสำโรง","Address_amphure":"เมืองกาญจนบุรี","Address_province":"กาญจนบุรี","Zipcode":"71000","LAT":13.949999999999999,"LNG":99.519999999999996},{"_id":55,"Local_government_organization":"อบต.แก่งเสี้ยน","Number":"225","Village No":"5","Road":"-","Address_district":"เกาะสำโรง","Address_amphure":"เมืองกาญจนบุรี","Address_province":"กาญจนบุรี","Zipcode":"71000","LAT":14.09,"LNG":99.5},{"_id":56,"Local_government_organization":"เทศบาลตำบลน้ำตกไทรโยคน้อย","Number":"989","Village No":"3","Road":"แสงชูโต","Address_district":"ท่าเสา","Address_amphure":"ไทรโยค","Address_province":"กาญจนบุรี","Zipcode":"71150","LAT":14.219698214990224,"LNG":99.075747728347778},{"_id":57,"Local_government_organization":"เทศบาลตำบลวังโพธิ์","Number":"86","Village No":"1","Road":"-","Address_district":"ลุ่มสุ่ม","Address_amphure":"ไทรโยค","Address_province":"กาญจนบุรี","Zipcode":"71150","LAT":14.1,"LNG":99.129999999999995},{"_id":58,"Local_government_organization":"เทศบาลตำบลไทรโยค","Number":"183","Village No":"2","Road":"-","Address_district":"ไทรโยค","Address_amphure":"ไทรโยค","Address_province":"กาญจนบุรี","Zipcode":"71150","LAT":14.42,"LNG":98.739999999999995},{"_id":59,"Local_government_organization":"อบต.บ้องตี้","Number":"79","Village No":"1","Road":"-","Address_district":"บ้องตี้","Address_amphure":"ไทรโยค","Address_province":"กาญจนบุรี","Zipcode":"71150","LAT":14.109999999999999,"LNG":98.980000000000004},{"_id":60,"Local_government_organization":"อบต.ลุ่มสุ่ม","Number":"188","Village No":"3","Road":"-","Address_district":"ท่าเสา","Address_amphure":"ไทรโยค","Address_province":"กาญจนบุรี","Zipcode":"71150","LAT":14.087346442165536,"LNG":99.168108825683589},{"_id":61,"Local_government_organization":"อบต.ศรีมงคล","Number":"346","Village No":"7","Road":"-","Address_district":"ศรีมงคล","Address_amphure":"ไทรโยค","Address_province":"กาญจนบุรี","Zipcode":"71150","LAT":14.022296305788412,"LNG":99.19157087802887},{"_id":62,"Local_government_organization":"อบต.สิงห์","Number":"15","Village No":"1","Road":"-","Address_district":"สิงห์","Address_amphure":"ไทรโยค","Address_province":"กาญจนบุรี","Zipcode":"71150","LAT":14.06,"LNG":99.25},{"_id":63,"Local_government_organization":"เทศบาลตำบลหนองรี","Number":"111","Village No":"2","Road":"-","Address_district":"หนองรี","Address_amphure":"บ่อพลอย","Address_province":"กาญจนบุรี","Zipcode":"71220","LAT":14.52470101550392,"LNG":99.464720761775993},{"_id":64,"Local_government_organization":"อบต.หนองกร่าง","Number":"99","Village No":"2","Road":"-","Address_district":"หนองกร่าง","Address_amphure":"บ่อพลอย","Address_province":"กาญจนบุรี","Zipcode":"71220","LAT":14.380561728462681,"LNG":99.506564140319824},{"_id":65,"Local_government_organization":"อบต.หนองรี","Number":"-","Village No":"7","Road":"-","Address_district":"หนองรี","Address_amphure":"บ่อพลอย","Address_province":"กาญจนบุรี","Zipcode":"71220","LAT":14.56,"LNG":99.349999999999994},{"_id":66,"Local_government_organization":"อบต.หลุมรัง","Number":"999/9","Village No":"5","Road":"บ่อพลอย - ด่านช้าง","Address_district":"หลุมรัง","Address_amphure":"บ่อพลอย","Address_province":"กาญจนบุรี","Zipcode":"71160","LAT":14.434302271837955,"LNG":99.497512359619122},{"_id":67,"Local_government_organization":"เทศบาลตำบลเขาโจด","Number":"200","Village No":"4","Road":"-","Address_district":"เขาโจด","Address_amphure":"ศรีสวัสดิ์","Address_province":"กาญจนบุรี","Zipcode":"71220","LAT":14.890000000000001,"LNG":99.200000000000003},{"_id":68,"Local_government_organization":"เทศบาลตำบลเอราวัณ","Number":"447","Village No":"4","Road":"-","Address_district":"ท่ากระดาน","Address_amphure":"ศรีสวัสดิ์","Address_province":"กาญจนบุรี","Zipcode":"71250","LAT":14.369999999999999,"LNG":99.170000000000073},{"_id":69,"Local_government_organization":"อบต.หนองเป็ด","Number":"140","Village No":"1","Road":"-","Address_district":"หนองเป็ด","Address_amphure":"ศรีสวัสดิ์","Address_province":"กาญจนบุรี","Zipcode":"71250","LAT":14.460000000000001,"LNG":99.230000000000004},{"_id":70,"Local_government_organization":"เทศบาลเมืองท่าเรือพระแท่น","Number":"54/1","Village No":"-","Road":"แสงชูโต","Address_district":"ท่าเรือ","Address_amphure":"ท่ามะกา","Address_province":"กาญจนบุรี","Zipcode":"71130","LAT":13.949828195256062,"LNG":99.752886056900024},{"_id":71,"Local_government_organization":"เทศบาลตำบลพระแท่นลำพระยา","Number":"100","Village No":"14","Road":"-","Address_district":"พระแท่น","Address_amphure":"ท่ามะกา","Address_province":"กาญจนบุรี","Zipcode":"71130","LAT":14.02,"LNG":99.790000000000006},{"_id":72,"Local_government_organization":"เทศบาลตำบลลูกแก","Number":"44/44","Village No":"7","Road":"แสงชูโต","Address_district":"ดอนขมิ้น","Address_amphure":"ท่ามะกา","Address_province":"กาญจนบุรี","Zipcode":"71120","LAT":13.880000000000001,"LNG":99.829999999999998},{"_id":782,"Local_government_organization":"อบต.สวี","Number":"13/2","Village No":"4","Road":"-","Address_district":"สวี","Address_amphure":"สวี","Address_province":"ชุมพร","Zipcode":"86130","LAT":10.25,"LNG":99.060000000000002},{"_id":73,"Local_government_organization":"เทศบาลตำบลหนองลาน","Number":"99/8","Village No":"7","Road":"-","Address_district":"หนองลาน","Address_amphure":"ท่ามะกา","Address_province":"กาญจนบุรี","Zipcode":"71130","LAT":14.04438186469268,"LNG":99.814850883483814},{"_id":74,"Local_government_organization":"เทศบาลตำบลหวายเหนียว","Number":"123","Village No":"3","Road":"เลียบคันคลองชลประทาน","Address_district":"หวายเหนียว","Address_amphure":"ท่ามะกา","Address_province":"กาญจนบุรี","Zipcode":"71120","LAT":13.912856538203942,"LNG":99.755831847190848},{"_id":75,"Local_government_organization":"อบต.ดอนชะเอม","Number":"111","Village No":"6","Road":"ท่าไม้-ตะคร้ำะเอน","Address_district":"ดอนชะเอม","Address_amphure":"ท่ามะกา","Address_province":"กาญจนบุรี","Zipcode":"71130","LAT":13.970000000000001,"LNG":99.810000000000002},{"_id":76,"Local_government_organization":"อบต.ตะคร้ำเอน","Number":"88","Village No":"5","Road":"บ้านสนุ่น","Address_district":"ตะคร้ำเอน","Address_amphure":"ท่ามะกา","Address_province":"กาญจนบุรี","Zipcode":"71130","LAT":13.99,"LNG":99.739999999999995},{"_id":77,"Local_government_organization":"อบต.ยางม่วง","Number":"99","Village No":"6","Road":"-","Address_district":"ยางม่วง","Address_amphure":"ท่ามะกา","Address_province":"กาญจนบุรี","Zipcode":"71120","LAT":13.92,"LNG":99.829999999999998},{"_id":78,"Local_government_organization":"อบต.หวายเหนียว","Number":"89","Village No":"7","Road":"-","Address_district":"หวายเหนียว","Address_amphure":"ท่ามะกา","Address_province":"กาญจนบุรี","Zipcode":"71120","LAT":13.9,"LNG":99.760000000000005},{"_id":79,"Local_government_organization":"อบต.แสนตอ","Number":"-","Village No":"12","Road":"-","Address_district":"แสนตอ","Address_amphure":"ท่ามะกา","Address_province":"กาญจนบุรี","Zipcode":"71130","LAT":13.92,"LNG":99.730000000000004},{"_id":80,"Local_government_organization":"อบต.โคกตะบอง","Number":"99","Village No":"3","Road":"-","Address_district":"โคกตะบอง","Address_amphure":"ท่ามะกา","Address_province":"กาญจนบุรี","Zipcode":"71120","LAT":13.84,"LNG":99.75},{"_id":81,"Local_government_organization":"เทศบาลตำบลท่าม่วง","Number":"1124/5","Village No":"4","Road":"แสงชูโต","Address_district":"ท่าม่วง","Address_amphure":"ท่าม่วง","Address_province":"กาญจนบุรี","Zipcode":"71110","LAT":13.970000000000001,"LNG":99.640000000000001},{"_id":82,"Local_government_organization":"เทศบาลตำบลม่วงชุม","Number":"99","Village No":"1","Road":"-","Address_district":"ม่วงชุม","Address_amphure":"ท่าม่วง","Address_province":"กาญจนบุรี","Zipcode":"71110","LAT":13.948764838687826,"LNG":99.625793695449829},{"_id":83,"Local_government_organization":"เทศบาลตำบลวังขนาย","Number":"221","Village No":"1","Road":"แสงชูโต","Address_district":"วังขนาย","Address_amphure":"ท่าม่วง","Address_province":"กาญจนบุรี","Zipcode":"71110","LAT":13.960000000000001,"LNG":99.659999999999997},{"_id":84,"Local_government_organization":"เทศบาลตำบลวังศาลา","Number":"99/9","Village No":"5","Road":"-","Address_district":"วังศาลา","Address_amphure":"ท่าม่วง","Address_province":"กาญจนบุรี","Zipcode":"71110","LAT":13.970000000000001,"LNG":99.700000000000003},{"_id":85,"Local_government_organization":"เทศบาลตำบลสำรอง","Number":"-","Village No":"1","Road":"-","Address_district":"เขาน้อย","Address_amphure":"ท่าม่วง","Address_province":"กาญจนบุรี","Zipcode":"71110","LAT":13.916181773625844,"LNG":99.675932590873686},{"_id":86,"Local_government_organization":"เทศบาลตำบลหนองขาว","Number":"99","Village No":"4","Road":"หนองขาว-ท่าม่วง","Address_district":"หนองขาว","Address_amphure":"ท่าม่วง","Address_province":"กาญจนบุรี","Zipcode":"71110","LAT":14.048093601764998,"LNG":99.628893480300917},{"_id":87,"Local_government_organization":"อบต.ท่าม่วง","Number":"1124/6","Village No":"4","Road":"แสงชูโต สายเก่า","Address_district":"ท่าม่วง","Address_amphure":"ท่าม่วง","Address_province":"กาญจนบุรี","Zipcode":"71110","LAT":13.970000000000001,"LNG":99.640000000000001},{"_id":88,"Local_government_organization":"อบต.บ้านใหม่","Number":"59","Village No":"5","Road":"-","Address_district":"บ้านใหม่","Address_amphure":"ท่าม่วง","Address_province":"กาญจนบุรี","Zipcode":"71110","LAT":13.880000000000001,"LNG":99.609999999999999},{"_id":89,"Local_government_organization":"อบต.รางสาลี่","Number":"95","Village No":"1","Road":"-","Address_district":"รางสาลี่","Address_amphure":"ท่าม่วง","Address_province":"กาญจนบุรี","Zipcode":"71110","LAT":13.85,"LNG":99.519999999999996},{"_id":90,"Local_government_organization":"อบต.หนองตากยา","Number":"9/9","Village No":"10","Road":"-","Address_district":"หนองตากยา","Address_amphure":"ท่าม่วง","Address_province":"กาญจนบุรี","Zipcode":"71110","LAT":13.800000000000001,"LNG":99.549999999999997},{"_id":91,"Local_government_organization":"เทศบาลตำบลทองผาภูมิ","Number":"333","Village No":"1","Road":"-","Address_district":"ท่าขนุน","Address_amphure":"ทองผาภูมิ","Address_province":"กาญจนบุรี","Zipcode":"71180","LAT":14.76,"LNG":98.640000000000001},{"_id":92,"Local_government_organization":"เทศบาลตำบลลิ่นถิ่น","Number":"90/1 ","Village No":"6","Road":"-","Address_district":"ลิ่นถิ่น","Address_amphure":"ทองผาภูมิ","Address_province":"กาญจนบุรี","Zipcode":"71180","LAT":14.832191008253005,"LNG":98.690033716590975},{"_id":93,"Local_government_organization":"เทศบาลตำบลสหกรณ์นิคม","Number":"114","Village No":"1","Road":"-","Address_district":"สหกรณ์นิคม","Address_amphure":"ทองผาภูมิ","Address_province":"กาญจนบุรี","Zipcode":"71180","LAT":14.720000000000001,"LNG":98.760000000000005},{"_id":94,"Local_government_organization":"อบต.ชะแล","Number":"-","Village No":"-","Road":"-","Address_district":"ชะแล","Address_amphure":"ทองผาภูมิ","Address_province":"กาญจนบุรี","Zipcode":"-","LAT":15,"LNG":98.829999999999927},{"_id":95,"Local_government_organization":"อบต.ปรังเผล","Number":"68/6","Village No":"1","Road":"-","Address_district":"ปรังเผล","Address_amphure":"สังขละบุรี","Address_province":"กาญจนบุรี","Zipcode":"71240","LAT":14.953416930540666,"LNG":98.617918789386749},{"_id":96,"Local_government_organization":"เทศบาลตำบลตลาดเขต","Number":"300","Village No":"7","Road":"กาญจนบุรี-อู่ทอง","Address_district":"รางหวาย","Address_amphure":"พนมทวน","Address_province":"กาญจนบุรี","Zipcode":"71170","LAT":14.23,"LNG":99.769999999999996},{"_id":97,"Local_government_organization":"เทศบาลตำบลพนมทวน","Number":"234","Village No":"3","Road":"กาญจนบุรี - อู่ทอง","Address_district":"พนมทวน","Address_amphure":"พนมทวน","Address_province":"กาญจนบุรี","Zipcode":"71140","LAT":14.130000000000001,"LNG":99.709999999999994},{"_id":98,"Local_government_organization":"เทศบาลตำบลรางหวาย","Number":"-","Village No":"2","Road":"-","Address_district":"รางหวาย","Address_amphure":"พนมทวน","Address_province":"กาญจนบุรี","Zipcode":"71170","LAT":14.229667211250558,"LNG":99.763734359741193}], "_links": {"start": "/api/3/action/datastore_search?resource_id=981ffa6f-2700-407e-9056-0ee05810adc6", "next": "/api/3/action/datastore_search?offset=100&resource_id=981ffa6f-2700-407e-9056-0ee05810adc6"}, "total": 7849}}