{"help": "https://data.go.th/api/3/action/help_show?name=datastore_search", "success": true, "result": {"include_total": true, "resource_id": "7782218d-baab-4f7d-8bd7-21f2dddbbe89", "fields": [{"type": "int", "id": "_id"}, {"type": "text", "id": "PROVINCE_NAME"}, {"type": "text", "id": "AMP_NAME"}, {"type": "text", "id": "Local_government_organization"}, {"type": "text", "id": "WEBSITE"}], "records_format": "objects", "records": [{"_id":1,"PROVINCE_NAME":"กระบี่","AMP_NAME":"เหนือคลอง","Local_government_organization":"อบต.ห้วยยูง","WEBSITE":"http://www.huayyung.go.th"},{"_id":2,"PROVINCE_NAME":"กระบี่","AMP_NAME":"เหนือคลอง","Local_government_organization":"อบต.ปกาสัย","WEBSITE":"http://www.pakasai.go.th"},{"_id":3,"PROVINCE_NAME":"กระบี่","AMP_NAME":"เหนือคลอง","Local_government_organization":"อบต.ตลิ่งชัน","WEBSITE":"http://www.talingchanlocal.go.th"},{"_id":4,"PROVINCE_NAME":"กระบี่","AMP_NAME":"เหนือคลอง","Local_government_organization":"อบต.โคกยาง","WEBSITE":"http://www.kokyanglocal.go.th"},{"_id":5,"PROVINCE_NAME":"กระบี่","AMP_NAME":"เหนือคลอง","Local_government_organization":"อบต.คลองเขม้า","WEBSITE":"http://www.klongkhamao.go.th"},{"_id":6,"PROVINCE_NAME":"กระบี่","AMP_NAME":"เหนือคลอง","Local_government_organization":"อบต.คลองขนาน","WEBSITE":"http://www.khlongkanan.go.th"},{"_id":7,"PROVINCE_NAME":"กระบี่","AMP_NAME":"เหนือคลอง","Local_government_organization":"อบต.เกาะศรีบอยา","WEBSITE":"http://www.kohsriboya.go.th"},{"_id":8,"PROVINCE_NAME":"กระบี่","AMP_NAME":"เหนือคลอง","Local_government_organization":"อบต.เหนือคลอง","WEBSITE":"http://www.nuakhlong.go.th"},{"_id":9,"PROVINCE_NAME":"กระบี่","AMP_NAME":"เหนือคลอง","Local_government_organization":"เทศบาลตำบลเหนือคลอง","WEBSITE":"http://www.http://nueaklong.go.th"},{"_id":10,"PROVINCE_NAME":"กระบี่","AMP_NAME":"ลำทับ","Local_government_organization":"อบต.ดินแดง","WEBSITE":"http://www.dindaeng.go.th"},{"_id":11,"PROVINCE_NAME":"กระบี่","AMP_NAME":"ลำทับ","Local_government_organization":"อบต.ทุ่งไทรทอง","WEBSITE":"http://thungsaithong.go.th"},{"_id":12,"PROVINCE_NAME":"กระบี่","AMP_NAME":"ลำทับ","Local_government_organization":"อบต.ดินอุดม","WEBSITE":"http://www.dinudom.go.th"},{"_id":13,"PROVINCE_NAME":"กระบี่","AMP_NAME":"ลำทับ","Local_government_organization":"อบต.ลำทับ","WEBSITE":"http://www.lamthap.go.th"},{"_id":14,"PROVINCE_NAME":"กระบี่","AMP_NAME":"ลำทับ","Local_government_organization":"เทศบาลตำบลลำทับ","WEBSITE":"http://www.nmt.or.th/krabi/lamthap/default.aspx"},{"_id":15,"PROVINCE_NAME":"กระบี่","AMP_NAME":"ปลายพระยา","Local_government_organization":"อบต.คีรีวง","WEBSITE":"http://www.kiriwong.go.th"},{"_id":16,"PROVINCE_NAME":"กระบี่","AMP_NAME":"ปลายพระยา","Local_government_organization":"อบต.เขาต่อ","WEBSITE":"http://www.khaotor.go.th"},{"_id":17,"PROVINCE_NAME":"กระบี่","AMP_NAME":"ปลายพระยา","Local_government_organization":"อบต.เขาเขน","WEBSITE":"http://www.khaokhen.go.th/"},{"_id":18,"PROVINCE_NAME":"กระบี่","AMP_NAME":"ปลายพระยา","Local_government_organization":"อบต.ปลายพระยา","WEBSITE":"http://www.plaipraya.go.th"},{"_id":19,"PROVINCE_NAME":"กระบี่","AMP_NAME":"ปลายพระยา","Local_government_organization":"เทศบาลตำบลปลายพระยา","WEBSITE":"http://www.plaiphraya.com"},{"_id":20,"PROVINCE_NAME":"กระบี่","AMP_NAME":"อ่าวลึก","Local_government_organization":"อบต.บ้านกลาง","WEBSITE":"http://www.baanklang-kb.go.th"},{"_id":21,"PROVINCE_NAME":"กระบี่","AMP_NAME":"อ่าวลึก","Local_government_organization":"อบต.คลองยา","WEBSITE":"http://www.klongya.go.th"},{"_id":22,"PROVINCE_NAME":"กระบี่","AMP_NAME":"อ่าวลึก","Local_government_organization":"อบต.เขาใหญ่","WEBSITE":"http://www.khaoyailocal.go.th"},{"_id":23,"PROVINCE_NAME":"กระบี่","AMP_NAME":"อ่าวลึก","Local_government_organization":"อบต.อ่าวลึกเหนือ","WEBSITE":"http://www.aolueknuea.go.th"},{"_id":24,"PROVINCE_NAME":"กระบี่","AMP_NAME":"อ่าวลึก","Local_government_organization":"อบต.อ่าวลึกน้อย","WEBSITE":"http://www.aoluknoi.go.th"},{"_id":25,"PROVINCE_NAME":"กระบี่","AMP_NAME":"อ่าวลึก","Local_government_organization":"อบต.คลองหิน","WEBSITE":"http://www.klonghin.go.th"},{"_id":26,"PROVINCE_NAME":"กระบี่","AMP_NAME":"อ่าวลึก","Local_government_organization":"อบต.นาเหนือ","WEBSITE":"http://www.nanua.go.th"},{"_id":27,"PROVINCE_NAME":"กระบี่","AMP_NAME":"อ่าวลึก","Local_government_organization":"อบต.แหลมสัก","WEBSITE":"http://www.lamsak.go.th"},{"_id":28,"PROVINCE_NAME":"กระบี่","AMP_NAME":"อ่าวลึก","Local_government_organization":"เทศบาลตำบลแหลมสัก","WEBSITE":"http://www.laemsak.go.th"},{"_id":29,"PROVINCE_NAME":"กระบี่","AMP_NAME":"อ่าวลึก","Local_government_organization":"อบต.อ่าวลึกใต้","WEBSITE":"http://www.aoluek.go.th"},{"_id":30,"PROVINCE_NAME":"กระบี่","AMP_NAME":"อ่าวลึก","Local_government_organization":"เทศบาลตำบลอ่าวลึกใต้","WEBSITE":"http://www.aoluktai.org"},{"_id":31,"PROVINCE_NAME":"กระบี่","AMP_NAME":"คลองท่อม","Local_government_organization":"อบต.เพหลา","WEBSITE":"http://www.phala.go.th"},{"_id":32,"PROVINCE_NAME":"กระบี่","AMP_NAME":"คลองท่อม","Local_government_organization":"อบต.พรุดินนา","WEBSITE":"http://www.prudinna.go.th"},{"_id":33,"PROVINCE_NAME":"กระบี่","AMP_NAME":"คลองท่อม","Local_government_organization":"อบต.ห้วยน้ำขาว","WEBSITE":"http://www.huaynamkhaw.go.th"},{"_id":34,"PROVINCE_NAME":"กระบี่","AMP_NAME":"คลองท่อม","Local_government_organization":"เทศบาลตำบลทรายขาว","WEBSITE":"http://www.saikhawkrabi.go.th"},{"_id":35,"PROVINCE_NAME":"กระบี่","AMP_NAME":"คลองท่อม","Local_government_organization":"เทศบาลตำบลคลองพนพัฒนา","WEBSITE":"http://www.Khlongphonphat.go.th"},{"_id":36,"PROVINCE_NAME":"กระบี่","AMP_NAME":"คลองท่อม","Local_government_organization":"เทศบาลตำบลคลองพน","WEBSITE":"http://www.Khlongphon.go.th"},{"_id":37,"PROVINCE_NAME":"กระบี่","AMP_NAME":"คลองท่อม","Local_government_organization":"อบต.คลองท่อมเหนือ","WEBSITE":"http://www.khlongthomnuea.go.th"},{"_id":38,"PROVINCE_NAME":"กระบี่","AMP_NAME":"คลองท่อม","Local_government_organization":"อบต.คลองท่อมใต้","WEBSITE":"http://www.khlongthomtai.go.th"},{"_id":39,"PROVINCE_NAME":"กระบี่","AMP_NAME":"คลองท่อม","Local_government_organization":"เทศบาลตำบลคลองท่อมใต้","WEBSITE":"http://www.khlongthomcity.go.th"},{"_id":40,"PROVINCE_NAME":"กระบี่","AMP_NAME":"เกาะลันตา","Local_government_organization":"อบต.ศาลาด่าน","WEBSITE":"http://www.saladan.go.th"},{"_id":41,"PROVINCE_NAME":"กระบี่","AMP_NAME":"เกาะลันตา","Local_government_organization":"อบต.คลองยาง","WEBSITE":"http://www.klongyanglocal.go.th"},{"_id":42,"PROVINCE_NAME":"กระบี่","AMP_NAME":"เกาะลันตา","Local_government_organization":"อบต.เกาะกลาง","WEBSITE":"http://www.kohklang.go.th"},{"_id":43,"PROVINCE_NAME":"กระบี่","AMP_NAME":"เกาะลันตา","Local_government_organization":"อบต.เกาะลันตาน้อย","WEBSITE":"http://www.kohlantanoi.go.th"},{"_id":44,"PROVINCE_NAME":"กระบี่","AMP_NAME":"เกาะลันตา","Local_government_organization":"อบต.เกาะลันตาใหญ่","WEBSITE":"http://www.kohlantayai.go.th"},{"_id":45,"PROVINCE_NAME":"กระบี่","AMP_NAME":"เกาะลันตา","Local_government_organization":"เทศบาลตำบลเกาะลันตาใหญ่","WEBSITE":"http://www.lantayaicity.go.th"},{"_id":46,"PROVINCE_NAME":"กระบี่","AMP_NAME":"เขาพนม","Local_government_organization":"อบต.โคกหาร","WEBSITE":"http://www.kokhan.go.th"},{"_id":47,"PROVINCE_NAME":"กระบี่","AMP_NAME":"เขาพนม","Local_government_organization":"อบต.หน้าเขา","WEBSITE":"http://www.nakhao.go.th"},{"_id":48,"PROVINCE_NAME":"กระบี่","AMP_NAME":"เขาพนม","Local_government_organization":"อบต.พรุเตียว","WEBSITE":"http://www.pruteaw.go.th/"},{"_id":49,"PROVINCE_NAME":"กระบี่","AMP_NAME":"เขาพนม","Local_government_organization":"อบต.สินปุน","WEBSITE":"http://www.sinpunlacal.go.th"},{"_id":50,"PROVINCE_NAME":"กระบี่","AMP_NAME":"เขาพนม","Local_government_organization":"อบต.เขาดิน","WEBSITE":"http://www.krabi-khodin.go.th"},{"_id":51,"PROVINCE_NAME":"กระบี่","AMP_NAME":"เขาพนม","Local_government_organization":"อบต.เขาพนม","WEBSITE":"http://www.khaopanom.go.th"},{"_id":52,"PROVINCE_NAME":"กระบี่","AMP_NAME":"เขาพนม","Local_government_organization":"เทศบาลตำบลเขาพนม","WEBSITE":"http://www.khaophanomcity.go.th"},{"_id":53,"PROVINCE_NAME":"กระบี่","AMP_NAME":"เมืองกระบี่","Local_government_organization":"อบต.คลองประสงค์","WEBSITE":"http://www.klongprasong.go.th"},{"_id":54,"PROVINCE_NAME":"กระบี่","AMP_NAME":"เมืองกระบี่","Local_government_organization":"อบต.หนองทะเล","WEBSITE":"http://www.nongtalay.go.th"},{"_id":55,"PROVINCE_NAME":"กระบี่","AMP_NAME":"เมืองกระบี่","Local_government_organization":"อบต.อ่าวนาง","WEBSITE":"http://www.aonang.go.th"},{"_id":56,"PROVINCE_NAME":"กระบี่","AMP_NAME":"เมืองกระบี่","Local_government_organization":"อบต.ไสไทย","WEBSITE":"http://www.saithai.go.th"},{"_id":57,"PROVINCE_NAME":"กระบี่","AMP_NAME":"เมืองกระบี่","Local_government_organization":"อบต.ทับปริก","WEBSITE":"http://www.tubprik.go.th"},{"_id":58,"PROVINCE_NAME":"กระบี่","AMP_NAME":"เมืองกระบี่","Local_government_organization":"อบต.เขาทอง","WEBSITE":"http://www.khaothong.go.th"},{"_id":59,"PROVINCE_NAME":"กระบี่","AMP_NAME":"เมืองกระบี่","Local_government_organization":"อบต.เขาคราม","WEBSITE":"http://www.kaokram.go.th"},{"_id":60,"PROVINCE_NAME":"กระบี่","AMP_NAME":"เมืองกระบี่","Local_government_organization":"เทศบาลตำบลกระบี่น้อย","WEBSITE":"http://www.krabinoi.go.th"},{"_id":61,"PROVINCE_NAME":"กระบี่","AMP_NAME":"เมืองกระบี่","Local_government_organization":"เทศบาลเมืองกระบี่","WEBSITE":"http://www.krabicity.go.th"},{"_id":62,"PROVINCE_NAME":"กระบี่","AMP_NAME":"เมืองกระบี่","Local_government_organization":"อบจ.กระบี่","WEBSITE":"http://www.krabipao.go.th"},{"_id":63,"PROVINCE_NAME":"กาญจนบุรี","AMP_NAME":"ห้วยกระเจา","Local_government_organization":"เทศบาลตำบลสระลงเรือ","WEBSITE":"http://www.salongrua.go.th"},{"_id":64,"PROVINCE_NAME":"กาญจนบุรี","AMP_NAME":"ห้วยกระเจา","Local_government_organization":"อบต.ดอนแสลบ","WEBSITE":"http://www.donsalab.go.th"},{"_id":65,"PROVINCE_NAME":"กาญจนบุรี","AMP_NAME":"ห้วยกระเจา","Local_government_organization":"อบต.วังไผ่","WEBSITE":"http://www.wangphai.go.th"},{"_id":66,"PROVINCE_NAME":"กาญจนบุรี","AMP_NAME":"ห้วยกระเจา","Local_government_organization":"เทศบาลตำบลห้วยกระเจา","WEBSITE":"http://www.huikrachao.go.th"},{"_id":67,"PROVINCE_NAME":"กาญจนบุรี","AMP_NAME":"หนองปรือ","Local_government_organization":"เทศบาลตำบลสมเด็จเจริญ","WEBSITE":"http://www.somdejcharoen.go.th"},{"_id":68,"PROVINCE_NAME":"กาญจนบุรี","AMP_NAME":"หนองปรือ","Local_government_organization":"เทศบาลตำบลหนองปลาไหล","WEBSITE":"http://www.thnpl.go.th"},{"_id":69,"PROVINCE_NAME":"กาญจนบุรี","AMP_NAME":"หนองปรือ","Local_government_organization":"อบต.หนองปรือ","WEBSITE":"http://www.nongpruekan.org"},{"_id":70,"PROVINCE_NAME":"กาญจนบุรี","AMP_NAME":"หนองปรือ","Local_government_organization":"เทศบาลตำบลหนองปรือ","WEBSITE":"http://www.nongpruekan.go.th"},{"_id":71,"PROVINCE_NAME":"กาญจนบุรี","AMP_NAME":"ด่านมะขามเตี้ย","Local_government_organization":"อบต.หนองไผ่","WEBSITE":"http://www.nongphai-kan.go.th"},{"_id":72,"PROVINCE_NAME":"กาญจนบุรี","AMP_NAME":"ด่านมะขามเตี้ย","Local_government_organization":"อบต.จรเข้เผือก","WEBSITE":"http://www.chorakhephuak.go.th"},{"_id":73,"PROVINCE_NAME":"กาญจนบุรี","AMP_NAME":"ด่านมะขามเตี้ย","Local_government_organization":"อบต.กลอนโด","WEBSITE":"http://www.klondo.go.th"},{"_id":74,"PROVINCE_NAME":"กาญจนบุรี","AMP_NAME":"ด่านมะขามเตี้ย","Local_government_organization":"เทศบาลตำบลด่านมะขามเตี้ย","WEBSITE":"http://www.danmakhamtia.go.th"},{"_id":75,"PROVINCE_NAME":"กาญจนบุรี","AMP_NAME":"เลาขวัญ","Local_government_organization":"อบต.หนองฝ้าย","WEBSITE":"http://www.hnongfai.go.th"},{"_id":76,"PROVINCE_NAME":"กาญจนบุรี","AMP_NAME":"เลาขวัญ","Local_government_organization":"เทศบาลตำบลหนองฝ้าย","WEBSITE":"http://www.nongfai.go.th"},{"_id":77,"PROVINCE_NAME":"กาญจนบุรี","AMP_NAME":"เลาขวัญ","Local_government_organization":"อบต.ทุ่งกระบ่ำ","WEBSITE":"http://www.thungkrabam.go.th"},{"_id":78,"PROVINCE_NAME":"กาญจนบุรี","AMP_NAME":"เลาขวัญ","Local_government_organization":"อบต.หนองนกแก้ว","WEBSITE":"http://www.nongnokkeaw.go.th"},{"_id":79,"PROVINCE_NAME":"กาญจนบุรี","AMP_NAME":"เลาขวัญ","Local_government_organization":"อบต.หนองปลิง","WEBSITE":"http://www.nongpling.com"},{"_id":80,"PROVINCE_NAME":"กาญจนบุรี","AMP_NAME":"เลาขวัญ","Local_government_organization":"อบต.หนองประดู่","WEBSITE":"http://www.nongpradu.go.th"},{"_id":81,"PROVINCE_NAME":"กาญจนบุรี","AMP_NAME":"เลาขวัญ","Local_government_organization":"อบต.หนองโสน","WEBSITE":"http://www.nongsano-kan.go.th"},{"_id":82,"PROVINCE_NAME":"กาญจนบุรี","AMP_NAME":"เลาขวัญ","Local_government_organization":"อบต.เลาขวัญ","WEBSITE":"http://laokhaun.go.th"},{"_id":83,"PROVINCE_NAME":"กาญจนบุรี","AMP_NAME":"เลาขวัญ","Local_government_organization":"เทศบาลตำบลเลาขวัญ","WEBSITE":"http://www.laokwan.go.th"},{"_id":84,"PROVINCE_NAME":"กาญจนบุรี","AMP_NAME":"พนมทวน","Local_government_organization":"อบต.ดอนตาเพชร","WEBSITE":"http://www.dontaphet.go.th"},{"_id":85,"PROVINCE_NAME":"กาญจนบุรี","AMP_NAME":"พนมทวน","Local_government_organization":"เทศบาลตำบลหนองสาหร่าย","WEBSITE":"http://www.nongsarai.go.th"},{"_id":86,"PROVINCE_NAME":"กาญจนบุรี","AMP_NAME":"พนมทวน","Local_government_organization":"เทศบาลตำบลรางหวาย","WEBSITE":"https://rangwaii.blogspot.com"},{"_id":87,"PROVINCE_NAME":"กาญจนบุรี","AMP_NAME":"พนมทวน","Local_government_organization":"เทศบาลตำบลตลาดเขต","WEBSITE":"http://www.taladkhet.go.th"},{"_id":88,"PROVINCE_NAME":"กาญจนบุรี","AMP_NAME":"พนมทวน","Local_government_organization":"อบต.พังตรุ","WEBSITE":"http://www.phangtrusao.go.th"},{"_id":89,"PROVINCE_NAME":"กาญจนบุรี","AMP_NAME":"พนมทวน","Local_government_organization":"เทศบาลตำบลดอนเจดีย์","WEBSITE":"http://www.donchedi.go.th"},{"_id":90,"PROVINCE_NAME":"กาญจนบุรี","AMP_NAME":"พนมทวน","Local_government_organization":"อบต.ทุ่งสมอ","WEBSITE":"http://www.thungsamorkan.go.th"},{"_id":91,"PROVINCE_NAME":"กาญจนบุรี","AMP_NAME":"พนมทวน","Local_government_organization":"อบต.หนองโรง","WEBSITE":"http://nhongrong.go.th"},{"_id":92,"PROVINCE_NAME":"กาญจนบุรี","AMP_NAME":"พนมทวน","Local_government_organization":"อบต.พนมทวน","WEBSITE":"http://www.phanomthuan.go.th"},{"_id":93,"PROVINCE_NAME":"กาญจนบุรี","AMP_NAME":"พนมทวน","Local_government_organization":"เทศบาลตำบลพนมทวน","WEBSITE":"http://www.pnt.go.th"},{"_id":94,"PROVINCE_NAME":"กาญจนบุรี","AMP_NAME":"สังขละบุรี","Local_government_organization":"อบต.ไล่โว่","WEBSITE":"http://www.laiwo.go.th/home"},{"_id":95,"PROVINCE_NAME":"กาญจนบุรี","AMP_NAME":"สังขละบุรี","Local_government_organization":"อบต.ปรังเผล","WEBSITE":"http://www.prungphlae.go.th"},{"_id":96,"PROVINCE_NAME":"กาญจนบุรี","AMP_NAME":"สังขละบุรี","Local_government_organization":"อบต.หนองลู","WEBSITE":"http://www.hnongloo.go.th"},{"_id":97,"PROVINCE_NAME":"กาญจนบุรี","AMP_NAME":"สังขละบุรี","Local_government_organization":"เทศบาลตำบลวังกะ","WEBSITE":"http://www.wangka.go.th"},{"_id":98,"PROVINCE_NAME":"กาญจนบุรี","AMP_NAME":"ทองผาภูมิ","Local_government_organization":"เทศบาลตำบลสหกรณ์นิคม","WEBSITE":"http://www.sahakornnikom.go.th"},{"_id":99,"PROVINCE_NAME":"กาญจนบุรี","AMP_NAME":"ทองผาภูมิ","Local_government_organization":"อบต.ห้วยเขย่ง","WEBSITE":"http://www.huaikhayeng.go.th"},{"_id":100,"PROVINCE_NAME":"กาญจนบุรี","AMP_NAME":"ทองผาภูมิ","Local_government_organization":"อบต.ชะแล","WEBSITE":"http://www.chalae.go.th"}], "_links": {"start": "/api/3/action/datastore_search?resource_id=7782218d-baab-4f7d-8bd7-21f2dddbbe89", "next": "/api/3/action/datastore_search?offset=100&resource_id=7782218d-baab-4f7d-8bd7-21f2dddbbe89"}, "total": 7823}}